{
    "data": [
        {
            "id": "1",
            "name": "In Rainbows",
            "band": {
            "id": "1",
            "name": "Radiohead"
            },
            "year": 2007
            },
            {
            "id": "2",
            "name": "The Dark Side of the Moon",
            "band": {
            "id": "2",
            "name": "Pink Floyd"
            },
            "year": 1973
            },
            {
            "id": "3",
            "name": "Worlds Apart",
            "band": {
            "id": "3",
            "name": "...And You Will Know Us by the Trail of Dead"
            },
            "year": 2005
            }

            {
             "id": "4",
             "name": "In Da Club",
             "band":{
             "id":"4",
             "name": "50 cent"
             },
             "year":"2005"
             }

             {
             "id": "5",
             "name": "Blinding Lights",
             "band":{
             "id": "5",
             "name": "The Weeknd",
            
             },
             "year":"2020"
             }



            ]

